{
  "version": "1.0",
  "defaultProvider": "cdnjs",
  "libraries": [

    {
      "library": "twitter-bootstrap@4.6.0",
      "destination": "wwwroot/lib/twitter-bootstrap/"
    }
  ,
    {
      "library": "font-awesome@5.15.4",
      "destination": "wwwroot/lib/font-awesome/"
    }
  ]
}